{
  "project_info": {
    "project_number": "701721207578",
    "project_id": "projectexample-3d6cc",
    "storage_bucket": "projectexample-3d6cc.appspot.com"
  },
  "client": [
    {
      "client_info": {
        "mobilesdk_app_id": "1:701721207578:android:a8c54101c2856acc6642a3",
        "android_client_info": {
          "package_name": "com.taneat.firebase_authentication"
        }
      },
      "oauth_client": [
        {
          "client_id": "701721207578-l7bk53js5crafmf0i47ip7i972ie3shq.apps.googleusercontent.com",
          "client_type": 1,
          "android_info": {
            "package_name": "com.taneat.firebase_authentication",
            "certificate_hash": "4ad64b8e3d707f24ffee18505fa894c075a51d86"
          }
        },
        {
          "client_id": "701721207578-01bvtfiobsilera1rtp7t167i3qsifi5.apps.googleusercontent.com",
          "client_type": 3
        }
      ],
      "api_key": [
        {
          "current_key": "AIzaSyCB7UAioczCDRgd6pXSpR6Y6WS4Ot0ba5E"
        }
      ],
      "services": {
        "appinvite_service": {
          "other_platform_oauth_client": [
            {
              "client_id": "701721207578-01bvtfiobsilera1rtp7t167i3qsifi5.apps.googleusercontent.com",
              "client_type": 3
            }
          ]
        }
      }
    }
  ],
  "configuration_version": "1"
}